Data Extraction · Bagyo.jl
…
│   average_speed = "29.052 MiB/s"
│   downloaded = "58.423 MiB"
│   remaining = "46.171 MiB"
└   total = "104.594 MiB"
┌ Info: Downloading
│   source = "https://www.ncei.noaa.gov/data/international-best-track-archive-for-climate-stewardship-ibtracs/v04r00/access/csv/ibtracs.WP.list.v04r00.csv"
│   dest = "/home/runner/work/Bagyo.jl/Bagyo.jl/src/../db/ibtracs/bt/bst_all.csv"
│   progress = 0.95
│   time_taken = "3.01 s"
│   time_remaining = "0.16 s"
│   average_speed = "32.991 MiB/s"
│   downloaded = "99.368 MiB"
│   remaining = "5.226 MiB"
└   total = "104.594 MiB"
┌ Info: Downloading
│   source = "https://www.ncei.noaa.gov/data/international-best-track-archive-for-climate-stewardship-ibtracs/v04r00/access/csv/ibtracs.WP.list.v04r00.csv"
│   dest = "/home/runner/work/Bagyo.jl/Bagyo.jl/src/../db/ibtracs/bt/bst_all.csv"
│   progress = 1.0
│   time_taken = "3.14 s"
│   time_remaining = "0.0 s"
│   average_speed = "33.278 MiB/s"
│   downloaded = "104.594 MiB"
│   remaining = "0 bytes"
└   total = "104.594 MiB"
"/home/runner/work/Bagyo.jl/Bagyo.jl/src/../db/ibtracs/bt/bst_all.csv"
Bagyo.jl only downloads the Western-North Pacific data of IBTrACS.
Loading
To load the JMA Best Track data, run the following:

julia> meta, data = load(BestTrack, :jma);
julia> meta1856×7 DataFrame
  Row │ INTERNATIONAL_ID  NUMBER_OF_LINES  CYCLONE_NUMBER  LAST_FLAG  TIME_DIF ⋯
      │ Int64             Int64            Int64?          Int64      Missing  ⋯
──────┼─────────────────────────────────────────────────────────────────────────
    1 │             5101               10         missing          0    missin ⋯
    2 │             5102               37         missing          0    missin
    3 │             5103               36         missing          0    missin
    4 │             5104               66         missing          0    missin
    5 │             5105               45         missing          1    missin ⋯
    6 │             5106               29         missing          0    missin
    7 │             5107               34         missing          1    missin
    8 │             5108               17         missing          0    missin
  ⋮   │        ⋮                 ⋮               ⋮             ⋮          ⋮    ⋱
 1850 │             2116               57              23          1    missin ⋯
 1851 │             2117               24              24          0    missin
 1852 │             2118               31              25          0    missin
 1853 │             2119               42              26          1    missin
 1854 │             2120               39              27          1    missin ⋯
 1855 │             2121               23              28          0    missin
 1856 │             2122               39              29          0    missin
                                                 3 columns and 1841 rows omitted
…
